^C:\USERS\PHOGC\DOCUMENTS\VISUAL STUDIO 2015\PROJECTS\BLACKHAND\BLACKHAND\VT.C
/c /Zi /nologo /W3 /WX- /O2 /Oi /Oy- /GL /D WIN32 /D NDEBUG /D _WINDOWS /D _USRDLL /D BLACKHAND_EXPORTS /D _WINDLL /D _MBCS /Gm- /EHsc /MD /GS /Gy /fp:precise /Zc:wchar_t /Zc:forScope /Zc:inline /Fo"RELEASE\\" /Fd"RELEASE\VC140.PDB" /Gd /TC /analyze- C:\USERS\PHOGC\DOCUMENTS\VISUAL STUDIO 2015\PROJECTS\BLACKHAND\BLACKHAND\VT.C
^C:\USERS\PHOGC\DOCUMENTS\VISUAL STUDIO 2015\PROJECTS\BLACKHAND\BLACKHAND\COLOR.C
/c /Zi /nologo /W3 /WX- /O2 /Oi /Oy- /GL /D WIN32 /D NDEBUG /D _WINDOWS /D _USRDLL /D BLACKHAND_EXPORTS /D _WINDLL /D _MBCS /Gm- /EHsc /MD /GS /Gy /fp:precise /Zc:wchar_t /Zc:forScope /Zc:inline /Fo"RELEASE\\" /Fd"RELEASE\VC140.PDB" /Gd /TC /analyze- C:\USERS\PHOGC\DOCUMENTS\VISUAL STUDIO 2015\PROJECTS\BLACKHAND\BLACKHAND\COLOR.C
^C:\USERS\PHOGC\DOCUMENTS\VISUAL STUDIO 2015\PROJECTS\BLACKHAND\BLACKHAND\INTERFACES.C
/c /Zi /nologo /W3 /WX- /O2 /Oi /Oy- /GL /D WIN32 /D NDEBUG /D _WINDOWS /D _USRDLL /D BLACKHAND_EXPORTS /D _WINDLL /D _MBCS /Gm- /EHsc /MD /GS /Gy /fp:precise /Zc:wchar_t /Zc:forScope /Zc:inline /Fo"RELEASE\\" /Fd"RELEASE\VC140.PDB" /Gd /TC /analyze- C:\USERS\PHOGC\DOCUMENTS\VISUAL STUDIO 2015\PROJECTS\BLACKHAND\BLACKHAND\INTERFACES.C
^C:\USERS\PHOGC\DOCUMENTS\VISUAL STUDIO 2015\PROJECTS\BLACKHAND\BLACKHAND\COLORS.C
/c /Zi /nologo /W3 /WX- /O2 /Oi /Oy- /GL /D WIN32 /D NDEBUG /D _WINDOWS /D _USRDLL /D BLACKHAND_EXPORTS /D _WINDLL /D _MBCS /Gm- /EHsc /MD /GS /Gy /fp:precise /Zc:wchar_t /Zc:forScope /Zc:inline /Fo"RELEASE\\" /Fd"RELEASE\VC140.PDB" /Gd /TC /analyze- C:\USERS\PHOGC\DOCUMENTS\VISUAL STUDIO 2015\PROJECTS\BLACKHAND\BLACKHAND\COLORS.C
^C:\USERS\PHOGC\DOCUMENTS\VISUAL STUDIO 2015\PROJECTS\BLACKHAND\BLACKHAND\DLLMAIN.C
/c /Zi /nologo /W3 /WX- /O2 /Oi /Oy- /GL /D WIN32 /D NDEBUG /D _WINDOWS /D _USRDLL /D BLACKHAND_EXPORTS /D _WINDLL /D _MBCS /Gm- /EHsc /MD /GS /Gy /fp:precise /Zc:wchar_t /Zc:forScope /Zc:inline /Fo"RELEASE\\" /Fd"RELEASE\VC140.PDB" /Gd /TC /analyze- C:\USERS\PHOGC\DOCUMENTS\VISUAL STUDIO 2015\PROJECTS\BLACKHAND\BLACKHAND\DLLMAIN.C
^C:\USERS\PHOGC\DOCUMENTS\VISUAL STUDIO 2015\PROJECTS\BLACKHAND\BLACKHAND\ENGINECLIENT.C
/c /Zi /nologo /W3 /WX- /O2 /Oi /Oy- /GL /D WIN32 /D NDEBUG /D _WINDOWS /D _USRDLL /D BLACKHAND_EXPORTS /D _WINDLL /D _MBCS /Gm- /EHsc /MD /GS /Gy /fp:precise /Zc:wchar_t /Zc:forScope /Zc:inline /Fo"RELEASE\\" /Fd"RELEASE\VC140.PDB" /Gd /TC /analyze- C:\USERS\PHOGC\DOCUMENTS\VISUAL STUDIO 2015\PROJECTS\BLACKHAND\BLACKHAND\ENGINECLIENT.C
^C:\USERS\PHOGC\DOCUMENTS\VISUAL STUDIO 2015\PROJECTS\BLACKHAND\BLACKHAND\ENTITY.C
/c /Zi /nologo /W3 /WX- /O2 /Oi /Oy- /GL /D WIN32 /D NDEBUG /D _WINDOWS /D _USRDLL /D BLACKHAND_EXPORTS /D _WINDLL /D _MBCS /Gm- /EHsc /MD /GS /Gy /fp:precise /Zc:wchar_t /Zc:forScope /Zc:inline /Fo"RELEASE\\" /Fd"RELEASE\VC140.PDB" /Gd /TC /analyze- C:\USERS\PHOGC\DOCUMENTS\VISUAL STUDIO 2015\PROJECTS\BLACKHAND\BLACKHAND\ENTITY.C
^C:\USERS\PHOGC\DOCUMENTS\VISUAL STUDIO 2015\PROJECTS\BLACKHAND\BLACKHAND\ENTITYLIST.C
/c /Zi /nologo /W3 /WX- /O2 /Oi /Oy- /GL /D WIN32 /D NDEBUG /D _WINDOWS /D _USRDLL /D BLACKHAND_EXPORTS /D _WINDLL /D _MBCS /Gm- /EHsc /MD /GS /Gy /fp:precise /Zc:wchar_t /Zc:forScope /Zc:inline /Fo"RELEASE\\" /Fd"RELEASE\VC140.PDB" /Gd /TC /analyze- C:\USERS\PHOGC\DOCUMENTS\VISUAL STUDIO 2015\PROJECTS\BLACKHAND\BLACKHAND\ENTITYLIST.C
^C:\USERS\PHOGC\DOCUMENTS\VISUAL STUDIO 2015\PROJECTS\BLACKHAND\BLACKHAND\FONTS.C
/c /Zi /nologo /W3 /WX- /O2 /Oi /Oy- /GL /D WIN32 /D NDEBUG /D _WINDOWS /D _USRDLL /D BLACKHAND_EXPORTS /D _WINDLL /D _MBCS /Gm- /EHsc /MD /GS /Gy /fp:precise /Zc:wchar_t /Zc:forScope /Zc:inline /Fo"RELEASE\\" /Fd"RELEASE\VC140.PDB" /Gd /TC /analyze- C:\USERS\PHOGC\DOCUMENTS\VISUAL STUDIO 2015\PROJECTS\BLACKHAND\BLACKHAND\FONTS.C
^C:\USERS\PHOGC\DOCUMENTS\VISUAL STUDIO 2015\PROJECTS\BLACKHAND\BLACKHAND\HOOKS.C
/c /Zi /nologo /W3 /WX- /O2 /Oi /Oy- /GL /D WIN32 /D NDEBUG /D _WINDOWS /D _USRDLL /D BLACKHAND_EXPORTS /D _WINDLL /D _MBCS /Gm- /EHsc /MD /GS /Gy /fp:precise /Zc:wchar_t /Zc:forScope /Zc:inline /Fo"RELEASE\\" /Fd"RELEASE\VC140.PDB" /Gd /TC /analyze- C:\USERS\PHOGC\DOCUMENTS\VISUAL STUDIO 2015\PROJECTS\BLACKHAND\BLACKHAND\HOOKS.C
^C:\USERS\PHOGC\DOCUMENTS\VISUAL STUDIO 2015\PROJECTS\BLACKHAND\BLACKHAND\ISURFACE.C
/c /Zi /nologo /W3 /WX- /O2 /Oi /Oy- /GL /D WIN32 /D NDEBUG /D _WINDOWS /D _USRDLL /D BLACKHAND_EXPORTS /D _WINDLL /D _MBCS /Gm- /EHsc /MD /GS /Gy /fp:precise /Zc:wchar_t /Zc:forScope /Zc:inline /Fo"RELEASE\\" /Fd"RELEASE\VC140.PDB" /Gd /TC /analyze- C:\USERS\PHOGC\DOCUMENTS\VISUAL STUDIO 2015\PROJECTS\BLACKHAND\BLACKHAND\ISURFACE.C
^C:\USERS\PHOGC\DOCUMENTS\VISUAL STUDIO 2015\PROJECTS\BLACKHAND\BLACKHAND\IVPANEL.C
/c /Zi /nologo /W3 /WX- /O2 /Oi /Oy- /GL /D WIN32 /D NDEBUG /D _WINDOWS /D _USRDLL /D BLACKHAND_EXPORTS /D _WINDLL /D _MBCS /Gm- /EHsc /MD /GS /Gy /fp:precise /Zc:wchar_t /Zc:forScope /Zc:inline /Fo"RELEASE\\" /Fd"RELEASE\VC140.PDB" /Gd /TC /analyze- C:\USERS\PHOGC\DOCUMENTS\VISUAL STUDIO 2015\PROJECTS\BLACKHAND\BLACKHAND\IVPANEL.C
^C:\USERS\PHOGC\DOCUMENTS\VISUAL STUDIO 2015\PROJECTS\BLACKHAND\BLACKHAND\VECTOR.C
/c /Zi /nologo /W3 /WX- /O2 /Oi /Oy- /GL /D WIN32 /D NDEBUG /D _WINDOWS /D _USRDLL /D BLACKHAND_EXPORTS /D _WINDLL /D _MBCS /Gm- /EHsc /MD /GS /Gy /fp:precise /Zc:wchar_t /Zc:forScope /Zc:inline /Fo"RELEASE\\" /Fd"RELEASE\VC140.PDB" /Gd /TC /analyze- C:\USERS\PHOGC\DOCUMENTS\VISUAL STUDIO 2015\PROJECTS\BLACKHAND\BLACKHAND\VECTOR.C
^C:\USERS\PHOGC\DOCUMENTS\VISUAL STUDIO 2015\PROJECTS\BLACKHAND\BLACKHAND\VISUALS.C
/c /Zi /nologo /W3 /WX- /O2 /Oi /Oy- /GL /D WIN32 /D NDEBUG /D _WINDOWS /D _USRDLL /D BLACKHAND_EXPORTS /D _WINDLL /D _MBCS /Gm- /EHsc /MD /GS /Gy /fp:precise /Zc:wchar_t /Zc:forScope /Zc:inline /Fo"RELEASE\\" /Fd"RELEASE\VC140.PDB" /Gd /TC /analyze- C:\USERS\PHOGC\DOCUMENTS\VISUAL STUDIO 2015\PROJECTS\BLACKHAND\BLACKHAND\VISUALS.C
^C:\USERS\PHOGC\DOCUMENTS\VISUAL STUDIO 2015\PROJECTS\BLACKHAND\BLACKHAND\WATERMARK.C
/c /Zi /nologo /W3 /WX- /O2 /Oi /Oy- /GL /D WIN32 /D NDEBUG /D _WINDOWS /D _USRDLL /D BLACKHAND_EXPORTS /D _WINDLL /D _MBCS /Gm- /EHsc /MD /GS /Gy /fp:precise /Zc:wchar_t /Zc:forScope /Zc:inline /Fo"RELEASE\\" /Fd"RELEASE\VC140.PDB" /Gd /TC /analyze- C:\USERS\PHOGC\DOCUMENTS\VISUAL STUDIO 2015\PROJECTS\BLACKHAND\BLACKHAND\WATERMARK.C
^C:\USERS\PHOGC\DOCUMENTS\VISUAL STUDIO 2015\PROJECTS\BLACKHAND\BLACKHAND\PAINTTRAVERSE.C
/c /Zi /nologo /W3 /WX- /O2 /Oi /Oy- /GL /D WIN32 /D NDEBUG /D _WINDOWS /D _USRDLL /D BLACKHAND_EXPORTS /D _WINDLL /D _MBCS /Gm- /EHsc /MD /GS /Gy /fp:precise /Zc:wchar_t /Zc:forScope /Zc:inline /Fo"RELEASE\\" /Fd"RELEASE\VC140.PDB" /Gd /TC /analyze- C:\USERS\PHOGC\DOCUMENTS\VISUAL STUDIO 2015\PROJECTS\BLACKHAND\BLACKHAND\PAINTTRAVERSE.C
^C:\USERS\PHOGC\DOCUMENTS\VISUAL STUDIO 2015\PROJECTS\BLACKHAND\BLACKHAND\WORLDTOSCREEN.C
/c /Zi /nologo /W3 /WX- /O2 /Oi /Oy- /GL /D WIN32 /D NDEBUG /D _WINDOWS /D _USRDLL /D BLACKHAND_EXPORTS /D _WINDLL /D _MBCS /Gm- /EHsc /MD /GS /Gy /fp:precise /Zc:wchar_t /Zc:forScope /Zc:inline /Fo"RELEASE\\" /Fd"RELEASE\VC140.PDB" /Gd /TC /analyze- C:\USERS\PHOGC\DOCUMENTS\VISUAL STUDIO 2015\PROJECTS\BLACKHAND\BLACKHAND\WORLDTOSCREEN.C
^C:\USERS\PHOGC\DOCUMENTS\VISUAL STUDIO 2015\PROJECTS\BLACKHAND\BLACKHAND\ESP.C
/c /Zi /nologo /W3 /WX- /O2 /Oi /Oy- /GL /D WIN32 /D NDEBUG /D _WINDOWS /D _USRDLL /D BLACKHAND_EXPORTS /D _WINDLL /D _MBCS /Gm- /EHsc /MD /GS /Gy /fp:precise /Zc:wchar_t /Zc:forScope /Zc:inline /Fo"RELEASE\\" /Fd"RELEASE\VC140.PDB" /Gd /TC /analyze- C:\USERS\PHOGC\DOCUMENTS\VISUAL STUDIO 2015\PROJECTS\BLACKHAND\BLACKHAND\ESP.C
