^C:\USERS\PHOGC\DOCUMENTS\VISUAL STUDIO 2015\PROJECTS\BLACKHAND\BLACKHAND\DLLMAIN.C|C:\USERS\PHOGC\DOCUMENTS\VISUAL STUDIO 2015\PROJECTS\BLACKHAND\BLACKHAND\INTERFACES.C
C:\USERS\PHOGC\DOCUMENTS\VISUAL STUDIO 2015\PROJECTS\BLACKHAND\BLACKHAND\RELEASE\VC140.PDB
C:\USERS\PHOGC\DOCUMENTS\VISUAL STUDIO 2015\PROJECTS\BLACKHAND\BLACKHAND\RELEASE\INTERFACES.OBJ
C:\USERS\PHOGC\DOCUMENTS\VISUAL STUDIO 2015\PROJECTS\BLACKHAND\BLACKHAND\RELEASE\DLLMAIN.OBJ
^C:\USERS\PHOGC\DOCUMENTS\VISUAL STUDIO 2015\PROJECTS\BLACKHAND\BLACKHAND\INTERFACES.C|C:\USERS\PHOGC\DOCUMENTS\VISUAL STUDIO 2015\PROJECTS\BLACKHAND\BLACKHAND\ISURFACE.C|C:\USERS\PHOGC\DOCUMENTS\VISUAL STUDIO 2015\PROJECTS\BLACKHAND\BLACKHAND\IVPANEL.C
C:\USERS\PHOGC\DOCUMENTS\VISUAL STUDIO 2015\PROJECTS\BLACKHAND\BLACKHAND\RELEASE\VC140.PDB
C:\USERS\PHOGC\DOCUMENTS\VISUAL STUDIO 2015\PROJECTS\BLACKHAND\BLACKHAND\RELEASE\IVPANEL.OBJ
C:\USERS\PHOGC\DOCUMENTS\VISUAL STUDIO 2015\PROJECTS\BLACKHAND\BLACKHAND\RELEASE\ISURFACE.OBJ
C:\USERS\PHOGC\DOCUMENTS\VISUAL STUDIO 2015\PROJECTS\BLACKHAND\BLACKHAND\RELEASE\INTERFACES.OBJ
^C:\USERS\PHOGC\DOCUMENTS\VISUAL STUDIO 2015\PROJECTS\BLACKHAND\BLACKHAND\HOOKS.C|C:\USERS\PHOGC\DOCUMENTS\VISUAL STUDIO 2015\PROJECTS\BLACKHAND\BLACKHAND\PAINTTRAVERSE.C|C:\USERS\PHOGC\DOCUMENTS\VISUAL STUDIO 2015\PROJECTS\BLACKHAND\BLACKHAND\VT.C
C:\USERS\PHOGC\DOCUMENTS\VISUAL STUDIO 2015\PROJECTS\BLACKHAND\BLACKHAND\RELEASE\VC140.PDB
C:\USERS\PHOGC\DOCUMENTS\VISUAL STUDIO 2015\PROJECTS\BLACKHAND\BLACKHAND\RELEASE\VT.OBJ
C:\USERS\PHOGC\DOCUMENTS\VISUAL STUDIO 2015\PROJECTS\BLACKHAND\BLACKHAND\RELEASE\PAINTTRAVERSE.OBJ
C:\USERS\PHOGC\DOCUMENTS\VISUAL STUDIO 2015\PROJECTS\BLACKHAND\BLACKHAND\RELEASE\HOOKS.OBJ
^C:\USERS\PHOGC\DOCUMENTS\VISUAL STUDIO 2015\PROJECTS\BLACKHAND\BLACKHAND\DLLMAIN.C|C:\USERS\PHOGC\DOCUMENTS\VISUAL STUDIO 2015\PROJECTS\BLACKHAND\BLACKHAND\HOOKS.C|C:\USERS\PHOGC\DOCUMENTS\VISUAL STUDIO 2015\PROJECTS\BLACKHAND\BLACKHAND\ISURFACE.C|C:\USERS\PHOGC\DOCUMENTS\VISUAL STUDIO 2015\PROJECTS\BLACKHAND\BLACKHAND\IVPANEL.C|C:\USERS\PHOGC\DOCUMENTS\VISUAL STUDIO 2015\PROJECTS\BLACKHAND\BLACKHAND\PAINTTRAVERSE.C
C:\USERS\PHOGC\DOCUMENTS\VISUAL STUDIO 2015\PROJECTS\BLACKHAND\BLACKHAND\RELEASE\VC140.PDB
C:\USERS\PHOGC\DOCUMENTS\VISUAL STUDIO 2015\PROJECTS\BLACKHAND\BLACKHAND\RELEASE\PAINTTRAVERSE.OBJ
C:\USERS\PHOGC\DOCUMENTS\VISUAL STUDIO 2015\PROJECTS\BLACKHAND\BLACKHAND\RELEASE\IVPANEL.OBJ
C:\USERS\PHOGC\DOCUMENTS\VISUAL STUDIO 2015\PROJECTS\BLACKHAND\BLACKHAND\RELEASE\ISURFACE.OBJ
C:\USERS\PHOGC\DOCUMENTS\VISUAL STUDIO 2015\PROJECTS\BLACKHAND\BLACKHAND\RELEASE\HOOKS.OBJ
C:\USERS\PHOGC\DOCUMENTS\VISUAL STUDIO 2015\PROJECTS\BLACKHAND\BLACKHAND\RELEASE\DLLMAIN.OBJ
^C:\USERS\PHOGC\DOCUMENTS\VISUAL STUDIO 2015\PROJECTS\BLACKHAND\BLACKHAND\PAINTTRAVERSE.C|C:\USERS\PHOGC\DOCUMENTS\VISUAL STUDIO 2015\PROJECTS\BLACKHAND\BLACKHAND\VT.C
C:\USERS\PHOGC\DOCUMENTS\VISUAL STUDIO 2015\PROJECTS\BLACKHAND\BLACKHAND\RELEASE\VC140.PDB
C:\USERS\PHOGC\DOCUMENTS\VISUAL STUDIO 2015\PROJECTS\BLACKHAND\BLACKHAND\RELEASE\VT.OBJ
C:\USERS\PHOGC\DOCUMENTS\VISUAL STUDIO 2015\PROJECTS\BLACKHAND\BLACKHAND\RELEASE\PAINTTRAVERSE.OBJ
^C:\USERS\PHOGC\DOCUMENTS\VISUAL STUDIO 2015\PROJECTS\BLACKHAND\BLACKHAND\VT.C
C:\USERS\PHOGC\DOCUMENTS\VISUAL STUDIO 2015\PROJECTS\BLACKHAND\BLACKHAND\RELEASE\VC140.PDB
^C:\USERS\PHOGC\DOCUMENTS\VISUAL STUDIO 2015\PROJECTS\BLACKHAND\BLACKHAND\COLOR.C|C:\USERS\PHOGC\DOCUMENTS\VISUAL STUDIO 2015\PROJECTS\BLACKHAND\BLACKHAND\ISURFACE.C|C:\USERS\PHOGC\DOCUMENTS\VISUAL STUDIO 2015\PROJECTS\BLACKHAND\BLACKHAND\PAINTTRAVERSE.C
C:\USERS\PHOGC\DOCUMENTS\VISUAL STUDIO 2015\PROJECTS\BLACKHAND\BLACKHAND\RELEASE\VC140.PDB
C:\USERS\PHOGC\DOCUMENTS\VISUAL STUDIO 2015\PROJECTS\BLACKHAND\BLACKHAND\RELEASE\PAINTTRAVERSE.OBJ
C:\USERS\PHOGC\DOCUMENTS\VISUAL STUDIO 2015\PROJECTS\BLACKHAND\BLACKHAND\RELEASE\ISURFACE.OBJ
C:\USERS\PHOGC\DOCUMENTS\VISUAL STUDIO 2015\PROJECTS\BLACKHAND\BLACKHAND\RELEASE\COLOR.OBJ
^C:\USERS\PHOGC\DOCUMENTS\VISUAL STUDIO 2015\PROJECTS\BLACKHAND\BLACKHAND\COLOR.C|C:\USERS\PHOGC\DOCUMENTS\VISUAL STUDIO 2015\PROJECTS\BLACKHAND\BLACKHAND\ISURFACE.C|C:\USERS\PHOGC\DOCUMENTS\VISUAL STUDIO 2015\PROJECTS\BLACKHAND\BLACKHAND\IVPANEL.C|C:\USERS\PHOGC\DOCUMENTS\VISUAL STUDIO 2015\PROJECTS\BLACKHAND\BLACKHAND\PAINTTRAVERSE.C
C:\USERS\PHOGC\DOCUMENTS\VISUAL STUDIO 2015\PROJECTS\BLACKHAND\BLACKHAND\RELEASE\VC140.PDB
C:\USERS\PHOGC\DOCUMENTS\VISUAL STUDIO 2015\PROJECTS\BLACKHAND\BLACKHAND\RELEASE\PAINTTRAVERSE.OBJ
C:\USERS\PHOGC\DOCUMENTS\VISUAL STUDIO 2015\PROJECTS\BLACKHAND\BLACKHAND\RELEASE\COLOR.OBJ
^C:\USERS\PHOGC\DOCUMENTS\VISUAL STUDIO 2015\PROJECTS\BLACKHAND\BLACKHAND\COLOR.C
C:\USERS\PHOGC\DOCUMENTS\VISUAL STUDIO 2015\PROJECTS\BLACKHAND\BLACKHAND\RELEASE\COLOR.OBJ
^C:\USERS\PHOGC\DOCUMENTS\VISUAL STUDIO 2015\PROJECTS\BLACKHAND\BLACKHAND\ISURFACE.C|C:\USERS\PHOGC\DOCUMENTS\VISUAL STUDIO 2015\PROJECTS\BLACKHAND\BLACKHAND\IVPANEL.C|C:\USERS\PHOGC\DOCUMENTS\VISUAL STUDIO 2015\PROJECTS\BLACKHAND\BLACKHAND\PAINTTRAVERSE.C
C:\USERS\PHOGC\DOCUMENTS\VISUAL STUDIO 2015\PROJECTS\BLACKHAND\BLACKHAND\RELEASE\VC140.PDB
C:\USERS\PHOGC\DOCUMENTS\VISUAL STUDIO 2015\PROJECTS\BLACKHAND\BLACKHAND\RELEASE\PAINTTRAVERSE.OBJ
C:\USERS\PHOGC\DOCUMENTS\VISUAL STUDIO 2015\PROJECTS\BLACKHAND\BLACKHAND\RELEASE\IVPANEL.OBJ
C:\USERS\PHOGC\DOCUMENTS\VISUAL STUDIO 2015\PROJECTS\BLACKHAND\BLACKHAND\RELEASE\ISURFACE.OBJ
^C:\USERS\PHOGC\DOCUMENTS\VISUAL STUDIO 2015\PROJECTS\BLACKHAND\BLACKHAND\ISURFACE.C|C:\USERS\PHOGC\DOCUMENTS\VISUAL STUDIO 2015\PROJECTS\BLACKHAND\BLACKHAND\PAINTTRAVERSE.C
C:\USERS\PHOGC\DOCUMENTS\VISUAL STUDIO 2015\PROJECTS\BLACKHAND\BLACKHAND\RELEASE\VC140.PDB
C:\USERS\PHOGC\DOCUMENTS\VISUAL STUDIO 2015\PROJECTS\BLACKHAND\BLACKHAND\RELEASE\PAINTTRAVERSE.OBJ
C:\USERS\PHOGC\DOCUMENTS\VISUAL STUDIO 2015\PROJECTS\BLACKHAND\BLACKHAND\RELEASE\ISURFACE.OBJ
^C:\USERS\PHOGC\DOCUMENTS\VISUAL STUDIO 2015\PROJECTS\BLACKHAND\BLACKHAND\COLORS.C|C:\USERS\PHOGC\DOCUMENTS\VISUAL STUDIO 2015\PROJECTS\BLACKHAND\BLACKHAND\DLLMAIN.C|C:\USERS\PHOGC\DOCUMENTS\VISUAL STUDIO 2015\PROJECTS\BLACKHAND\BLACKHAND\FONTS.C|C:\USERS\PHOGC\DOCUMENTS\VISUAL STUDIO 2015\PROJECTS\BLACKHAND\BLACKHAND\ISURFACE.C|C:\USERS\PHOGC\DOCUMENTS\VISUAL STUDIO 2015\PROJECTS\BLACKHAND\BLACKHAND\IVPANEL.C|C:\USERS\PHOGC\DOCUMENTS\VISUAL STUDIO 2015\PROJECTS\BLACKHAND\BLACKHAND\PAINTTRAVERSE.C|C:\USERS\PHOGC\DOCUMENTS\VISUAL STUDIO 2015\PROJECTS\BLACKHAND\BLACKHAND\VISUALS.C|C:\USERS\PHOGC\DOCUMENTS\VISUAL STUDIO 2015\PROJECTS\BLACKHAND\BLACKHAND\WATERMARK.C
C:\USERS\PHOGC\DOCUMENTS\VISUAL STUDIO 2015\PROJECTS\BLACKHAND\BLACKHAND\RELEASE\VC140.PDB
C:\USERS\PHOGC\DOCUMENTS\VISUAL STUDIO 2015\PROJECTS\BLACKHAND\BLACKHAND\RELEASE\WATERMARK.OBJ
C:\USERS\PHOGC\DOCUMENTS\VISUAL STUDIO 2015\PROJECTS\BLACKHAND\BLACKHAND\RELEASE\VISUALS.OBJ
C:\USERS\PHOGC\DOCUMENTS\VISUAL STUDIO 2015\PROJECTS\BLACKHAND\BLACKHAND\RELEASE\PAINTTRAVERSE.OBJ
C:\USERS\PHOGC\DOCUMENTS\VISUAL STUDIO 2015\PROJECTS\BLACKHAND\BLACKHAND\RELEASE\IVPANEL.OBJ
C:\USERS\PHOGC\DOCUMENTS\VISUAL STUDIO 2015\PROJECTS\BLACKHAND\BLACKHAND\RELEASE\ISURFACE.OBJ
C:\USERS\PHOGC\DOCUMENTS\VISUAL STUDIO 2015\PROJECTS\BLACKHAND\BLACKHAND\RELEASE\FONTS.OBJ
C:\USERS\PHOGC\DOCUMENTS\VISUAL STUDIO 2015\PROJECTS\BLACKHAND\BLACKHAND\RELEASE\DLLMAIN.OBJ
C:\USERS\PHOGC\DOCUMENTS\VISUAL STUDIO 2015\PROJECTS\BLACKHAND\BLACKHAND\RELEASE\COLORS.OBJ
^C:\USERS\PHOGC\DOCUMENTS\VISUAL STUDIO 2015\PROJECTS\BLACKHAND\BLACKHAND\PAINTTRAVERSE.C|C:\USERS\PHOGC\DOCUMENTS\VISUAL STUDIO 2015\PROJECTS\BLACKHAND\BLACKHAND\WATERMARK.C
C:\USERS\PHOGC\DOCUMENTS\VISUAL STUDIO 2015\PROJECTS\BLACKHAND\BLACKHAND\RELEASE\VC140.PDB
C:\USERS\PHOGC\DOCUMENTS\VISUAL STUDIO 2015\PROJECTS\BLACKHAND\BLACKHAND\RELEASE\WATERMARK.OBJ
C:\USERS\PHOGC\DOCUMENTS\VISUAL STUDIO 2015\PROJECTS\BLACKHAND\BLACKHAND\RELEASE\PAINTTRAVERSE.OBJ
^C:\USERS\PHOGC\DOCUMENTS\VISUAL STUDIO 2015\PROJECTS\BLACKHAND\BLACKHAND\COLORS.C|C:\USERS\PHOGC\DOCUMENTS\VISUAL STUDIO 2015\PROJECTS\BLACKHAND\BLACKHAND\DLLMAIN.C|C:\USERS\PHOGC\DOCUMENTS\VISUAL STUDIO 2015\PROJECTS\BLACKHAND\BLACKHAND\FONTS.C|C:\USERS\PHOGC\DOCUMENTS\VISUAL STUDIO 2015\PROJECTS\BLACKHAND\BLACKHAND\ISURFACE.C|C:\USERS\PHOGC\DOCUMENTS\VISUAL STUDIO 2015\PROJECTS\BLACKHAND\BLACKHAND\PAINTTRAVERSE.C|C:\USERS\PHOGC\DOCUMENTS\VISUAL STUDIO 2015\PROJECTS\BLACKHAND\BLACKHAND\VISUALS.C|C:\USERS\PHOGC\DOCUMENTS\VISUAL STUDIO 2015\PROJECTS\BLACKHAND\BLACKHAND\WATERMARK.C
C:\USERS\PHOGC\DOCUMENTS\VISUAL STUDIO 2015\PROJECTS\BLACKHAND\BLACKHAND\RELEASE\VC140.PDB
C:\USERS\PHOGC\DOCUMENTS\VISUAL STUDIO 2015\PROJECTS\BLACKHAND\BLACKHAND\RELEASE\WATERMARK.OBJ
C:\USERS\PHOGC\DOCUMENTS\VISUAL STUDIO 2015\PROJECTS\BLACKHAND\BLACKHAND\RELEASE\VISUALS.OBJ
C:\USERS\PHOGC\DOCUMENTS\VISUAL STUDIO 2015\PROJECTS\BLACKHAND\BLACKHAND\RELEASE\PAINTTRAVERSE.OBJ
C:\USERS\PHOGC\DOCUMENTS\VISUAL STUDIO 2015\PROJECTS\BLACKHAND\BLACKHAND\RELEASE\FONTS.OBJ
C:\USERS\PHOGC\DOCUMENTS\VISUAL STUDIO 2015\PROJECTS\BLACKHAND\BLACKHAND\RELEASE\DLLMAIN.OBJ
C:\USERS\PHOGC\DOCUMENTS\VISUAL STUDIO 2015\PROJECTS\BLACKHAND\BLACKHAND\RELEASE\COLORS.OBJ
^C:\USERS\PHOGC\DOCUMENTS\VISUAL STUDIO 2015\PROJECTS\BLACKHAND\BLACKHAND\DLLMAIN.C|C:\USERS\PHOGC\DOCUMENTS\VISUAL STUDIO 2015\PROJECTS\BLACKHAND\BLACKHAND\HOOKS.C|C:\USERS\PHOGC\DOCUMENTS\VISUAL STUDIO 2015\PROJECTS\BLACKHAND\BLACKHAND\PAINTTRAVERSE.C
C:\USERS\PHOGC\DOCUMENTS\VISUAL STUDIO 2015\PROJECTS\BLACKHAND\BLACKHAND\RELEASE\VC140.PDB
C:\USERS\PHOGC\DOCUMENTS\VISUAL STUDIO 2015\PROJECTS\BLACKHAND\BLACKHAND\RELEASE\PAINTTRAVERSE.OBJ
C:\USERS\PHOGC\DOCUMENTS\VISUAL STUDIO 2015\PROJECTS\BLACKHAND\BLACKHAND\RELEASE\HOOKS.OBJ
C:\USERS\PHOGC\DOCUMENTS\VISUAL STUDIO 2015\PROJECTS\BLACKHAND\BLACKHAND\RELEASE\DLLMAIN.OBJ
^C:\USERS\PHOGC\DOCUMENTS\VISUAL STUDIO 2015\PROJECTS\BLACKHAND\BLACKHAND\COLORS.C|C:\USERS\PHOGC\DOCUMENTS\VISUAL STUDIO 2015\PROJECTS\BLACKHAND\BLACKHAND\DLLMAIN.C|C:\USERS\PHOGC\DOCUMENTS\VISUAL STUDIO 2015\PROJECTS\BLACKHAND\BLACKHAND\FONTS.C|C:\USERS\PHOGC\DOCUMENTS\VISUAL STUDIO 2015\PROJECTS\BLACKHAND\BLACKHAND\HOOKS.C|C:\USERS\PHOGC\DOCUMENTS\VISUAL STUDIO 2015\PROJECTS\BLACKHAND\BLACKHAND\ISURFACE.C|C:\USERS\PHOGC\DOCUMENTS\VISUAL STUDIO 2015\PROJECTS\BLACKHAND\BLACKHAND\PAINTTRAVERSE.C|C:\USERS\PHOGC\DOCUMENTS\VISUAL STUDIO 2015\PROJECTS\BLACKHAND\BLACKHAND\VISUALS.C|C:\USERS\PHOGC\DOCUMENTS\VISUAL STUDIO 2015\PROJECTS\BLACKHAND\BLACKHAND\WATERMARK.C
C:\USERS\PHOGC\DOCUMENTS\VISUAL STUDIO 2015\PROJECTS\BLACKHAND\BLACKHAND\RELEASE\VC140.PDB
C:\USERS\PHOGC\DOCUMENTS\VISUAL STUDIO 2015\PROJECTS\BLACKHAND\BLACKHAND\RELEASE\WATERMARK.OBJ
C:\USERS\PHOGC\DOCUMENTS\VISUAL STUDIO 2015\PROJECTS\BLACKHAND\BLACKHAND\RELEASE\VISUALS.OBJ
C:\USERS\PHOGC\DOCUMENTS\VISUAL STUDIO 2015\PROJECTS\BLACKHAND\BLACKHAND\RELEASE\PAINTTRAVERSE.OBJ
C:\USERS\PHOGC\DOCUMENTS\VISUAL STUDIO 2015\PROJECTS\BLACKHAND\BLACKHAND\RELEASE\ISURFACE.OBJ
C:\USERS\PHOGC\DOCUMENTS\VISUAL STUDIO 2015\PROJECTS\BLACKHAND\BLACKHAND\RELEASE\HOOKS.OBJ
C:\USERS\PHOGC\DOCUMENTS\VISUAL STUDIO 2015\PROJECTS\BLACKHAND\BLACKHAND\RELEASE\FONTS.OBJ
C:\USERS\PHOGC\DOCUMENTS\VISUAL STUDIO 2015\PROJECTS\BLACKHAND\BLACKHAND\RELEASE\DLLMAIN.OBJ
C:\USERS\PHOGC\DOCUMENTS\VISUAL STUDIO 2015\PROJECTS\BLACKHAND\BLACKHAND\RELEASE\COLORS.OBJ
^C:\USERS\PHOGC\DOCUMENTS\VISUAL STUDIO 2015\PROJECTS\BLACKHAND\BLACKHAND\COLORS.C|C:\USERS\PHOGC\DOCUMENTS\VISUAL STUDIO 2015\PROJECTS\BLACKHAND\BLACKHAND\DLLMAIN.C|C:\USERS\PHOGC\DOCUMENTS\VISUAL STUDIO 2015\PROJECTS\BLACKHAND\BLACKHAND\ENTITY.C|C:\USERS\PHOGC\DOCUMENTS\VISUAL STUDIO 2015\PROJECTS\BLACKHAND\BLACKHAND\ENTITYLIST.C|C:\USERS\PHOGC\DOCUMENTS\VISUAL STUDIO 2015\PROJECTS\BLACKHAND\BLACKHAND\FONTS.C|C:\USERS\PHOGC\DOCUMENTS\VISUAL STUDIO 2015\PROJECTS\BLACKHAND\BLACKHAND\HOOKS.C|C:\USERS\PHOGC\DOCUMENTS\VISUAL STUDIO 2015\PROJECTS\BLACKHAND\BLACKHAND\INTERFACES.C|C:\USERS\PHOGC\DOCUMENTS\VISUAL STUDIO 2015\PROJECTS\BLACKHAND\BLACKHAND\ISURFACE.C|C:\USERS\PHOGC\DOCUMENTS\VISUAL STUDIO 2015\PROJECTS\BLACKHAND\BLACKHAND\IVPANEL.C|C:\USERS\PHOGC\DOCUMENTS\VISUAL STUDIO 2015\PROJECTS\BLACKHAND\BLACKHAND\PAINTTRAVERSE.C|C:\USERS\PHOGC\DOCUMENTS\VISUAL STUDIO 2015\PROJECTS\BLACKHAND\BLACKHAND\VECTOR.C|C:\USERS\PHOGC\DOCUMENTS\VISUAL STUDIO 2015\PROJECTS\BLACKHAND\BLACKHAND\VISUALS.C|C:\USERS\PHOGC\DOCUMENTS\VISUAL STUDIO 2015\PROJECTS\BLACKHAND\BLACKHAND\WATERMARK.C
C:\USERS\PHOGC\DOCUMENTS\VISUAL STUDIO 2015\PROJECTS\BLACKHAND\BLACKHAND\RELEASE\VC140.PDB
C:\USERS\PHOGC\DOCUMENTS\VISUAL STUDIO 2015\PROJECTS\BLACKHAND\BLACKHAND\RELEASE\VECTOR.OBJ
C:\USERS\PHOGC\DOCUMENTS\VISUAL STUDIO 2015\PROJECTS\BLACKHAND\BLACKHAND\RELEASE\PAINTTRAVERSE.OBJ
C:\USERS\PHOGC\DOCUMENTS\VISUAL STUDIO 2015\PROJECTS\BLACKHAND\BLACKHAND\RELEASE\ISURFACE.OBJ
C:\USERS\PHOGC\DOCUMENTS\VISUAL STUDIO 2015\PROJECTS\BLACKHAND\BLACKHAND\RELEASE\INTERFACES.OBJ
C:\USERS\PHOGC\DOCUMENTS\VISUAL STUDIO 2015\PROJECTS\BLACKHAND\BLACKHAND\RELEASE\HOOKS.OBJ
C:\USERS\PHOGC\DOCUMENTS\VISUAL STUDIO 2015\PROJECTS\BLACKHAND\BLACKHAND\RELEASE\DLLMAIN.OBJ
^C:\USERS\PHOGC\DOCUMENTS\VISUAL STUDIO 2015\PROJECTS\BLACKHAND\BLACKHAND\COLORS.C|C:\USERS\PHOGC\DOCUMENTS\VISUAL STUDIO 2015\PROJECTS\BLACKHAND\BLACKHAND\DLLMAIN.C|C:\USERS\PHOGC\DOCUMENTS\VISUAL STUDIO 2015\PROJECTS\BLACKHAND\BLACKHAND\ENTITY.C|C:\USERS\PHOGC\DOCUMENTS\VISUAL STUDIO 2015\PROJECTS\BLACKHAND\BLACKHAND\ENTITYLIST.C|C:\USERS\PHOGC\DOCUMENTS\VISUAL STUDIO 2015\PROJECTS\BLACKHAND\BLACKHAND\FONTS.C|C:\USERS\PHOGC\DOCUMENTS\VISUAL STUDIO 2015\PROJECTS\BLACKHAND\BLACKHAND\HOOKS.C|C:\USERS\PHOGC\DOCUMENTS\VISUAL STUDIO 2015\PROJECTS\BLACKHAND\BLACKHAND\ISURFACE.C|C:\USERS\PHOGC\DOCUMENTS\VISUAL STUDIO 2015\PROJECTS\BLACKHAND\BLACKHAND\IVPANEL.C|C:\USERS\PHOGC\DOCUMENTS\VISUAL STUDIO 2015\PROJECTS\BLACKHAND\BLACKHAND\PAINTTRAVERSE.C|C:\USERS\PHOGC\DOCUMENTS\VISUAL STUDIO 2015\PROJECTS\BLACKHAND\BLACKHAND\VISUALS.C|C:\USERS\PHOGC\DOCUMENTS\VISUAL STUDIO 2015\PROJECTS\BLACKHAND\BLACKHAND\WATERMARK.C
C:\USERS\PHOGC\DOCUMENTS\VISUAL STUDIO 2015\PROJECTS\BLACKHAND\BLACKHAND\RELEASE\VC140.PDB
C:\USERS\PHOGC\DOCUMENTS\VISUAL STUDIO 2015\PROJECTS\BLACKHAND\BLACKHAND\RELEASE\WATERMARK.OBJ
C:\USERS\PHOGC\DOCUMENTS\VISUAL STUDIO 2015\PROJECTS\BLACKHAND\BLACKHAND\RELEASE\VISUALS.OBJ
C:\USERS\PHOGC\DOCUMENTS\VISUAL STUDIO 2015\PROJECTS\BLACKHAND\BLACKHAND\RELEASE\PAINTTRAVERSE.OBJ
C:\USERS\PHOGC\DOCUMENTS\VISUAL STUDIO 2015\PROJECTS\BLACKHAND\BLACKHAND\RELEASE\IVPANEL.OBJ
C:\USERS\PHOGC\DOCUMENTS\VISUAL STUDIO 2015\PROJECTS\BLACKHAND\BLACKHAND\RELEASE\ISURFACE.OBJ
C:\USERS\PHOGC\DOCUMENTS\VISUAL STUDIO 2015\PROJECTS\BLACKHAND\BLACKHAND\RELEASE\HOOKS.OBJ
C:\USERS\PHOGC\DOCUMENTS\VISUAL STUDIO 2015\PROJECTS\BLACKHAND\BLACKHAND\RELEASE\FONTS.OBJ
C:\USERS\PHOGC\DOCUMENTS\VISUAL STUDIO 2015\PROJECTS\BLACKHAND\BLACKHAND\RELEASE\ENTITYLIST.OBJ
C:\USERS\PHOGC\DOCUMENTS\VISUAL STUDIO 2015\PROJECTS\BLACKHAND\BLACKHAND\RELEASE\ENTITY.OBJ
C:\USERS\PHOGC\DOCUMENTS\VISUAL STUDIO 2015\PROJECTS\BLACKHAND\BLACKHAND\RELEASE\DLLMAIN.OBJ
C:\USERS\PHOGC\DOCUMENTS\VISUAL STUDIO 2015\PROJECTS\BLACKHAND\BLACKHAND\RELEASE\COLORS.OBJ
^C:\USERS\PHOGC\DOCUMENTS\VISUAL STUDIO 2015\PROJECTS\BLACKHAND\BLACKHAND\COLORS.C|C:\USERS\PHOGC\DOCUMENTS\VISUAL STUDIO 2015\PROJECTS\BLACKHAND\BLACKHAND\DLLMAIN.C|C:\USERS\PHOGC\DOCUMENTS\VISUAL STUDIO 2015\PROJECTS\BLACKHAND\BLACKHAND\ENGINECLIENT.C|C:\USERS\PHOGC\DOCUMENTS\VISUAL STUDIO 2015\PROJECTS\BLACKHAND\BLACKHAND\ENTITY.C|C:\USERS\PHOGC\DOCUMENTS\VISUAL STUDIO 2015\PROJECTS\BLACKHAND\BLACKHAND\ENTITYLIST.C|C:\USERS\PHOGC\DOCUMENTS\VISUAL STUDIO 2015\PROJECTS\BLACKHAND\BLACKHAND\FONTS.C|C:\USERS\PHOGC\DOCUMENTS\VISUAL STUDIO 2015\PROJECTS\BLACKHAND\BLACKHAND\HOOKS.C|C:\USERS\PHOGC\DOCUMENTS\VISUAL STUDIO 2015\PROJECTS\BLACKHAND\BLACKHAND\INTERFACES.C|C:\USERS\PHOGC\DOCUMENTS\VISUAL STUDIO 2015\PROJECTS\BLACKHAND\BLACKHAND\ISURFACE.C|C:\USERS\PHOGC\DOCUMENTS\VISUAL STUDIO 2015\PROJECTS\BLACKHAND\BLACKHAND\IVPANEL.C|C:\USERS\PHOGC\DOCUMENTS\VISUAL STUDIO 2015\PROJECTS\BLACKHAND\BLACKHAND\PAINTTRAVERSE.C|C:\USERS\PHOGC\DOCUMENTS\VISUAL STUDIO 2015\PROJECTS\BLACKHAND\BLACKHAND\VECTOR.C|C:\USERS\PHOGC\DOCUMENTS\VISUAL STUDIO 2015\PROJECTS\BLACKHAND\BLACKHAND\VISUALS.C|C:\USERS\PHOGC\DOCUMENTS\VISUAL STUDIO 2015\PROJECTS\BLACKHAND\BLACKHAND\WATERMARK.C|C:\USERS\PHOGC\DOCUMENTS\VISUAL STUDIO 2015\PROJECTS\BLACKHAND\BLACKHAND\WORLDTOSCREEN.C
C:\USERS\PHOGC\DOCUMENTS\VISUAL STUDIO 2015\PROJECTS\BLACKHAND\BLACKHAND\RELEASE\VC140.PDB
C:\USERS\PHOGC\DOCUMENTS\VISUAL STUDIO 2015\PROJECTS\BLACKHAND\BLACKHAND\RELEASE\WORLDTOSCREEN.OBJ
C:\USERS\PHOGC\DOCUMENTS\VISUAL STUDIO 2015\PROJECTS\BLACKHAND\BLACKHAND\RELEASE\WATERMARK.OBJ
C:\USERS\PHOGC\DOCUMENTS\VISUAL STUDIO 2015\PROJECTS\BLACKHAND\BLACKHAND\RELEASE\VISUALS.OBJ
C:\USERS\PHOGC\DOCUMENTS\VISUAL STUDIO 2015\PROJECTS\BLACKHAND\BLACKHAND\RELEASE\VECTOR.OBJ
C:\USERS\PHOGC\DOCUMENTS\VISUAL STUDIO 2015\PROJECTS\BLACKHAND\BLACKHAND\RELEASE\PAINTTRAVERSE.OBJ
C:\USERS\PHOGC\DOCUMENTS\VISUAL STUDIO 2015\PROJECTS\BLACKHAND\BLACKHAND\RELEASE\IVPANEL.OBJ
C:\USERS\PHOGC\DOCUMENTS\VISUAL STUDIO 2015\PROJECTS\BLACKHAND\BLACKHAND\RELEASE\ISURFACE.OBJ
C:\USERS\PHOGC\DOCUMENTS\VISUAL STUDIO 2015\PROJECTS\BLACKHAND\BLACKHAND\RELEASE\INTERFACES.OBJ
C:\USERS\PHOGC\DOCUMENTS\VISUAL STUDIO 2015\PROJECTS\BLACKHAND\BLACKHAND\RELEASE\HOOKS.OBJ
C:\USERS\PHOGC\DOCUMENTS\VISUAL STUDIO 2015\PROJECTS\BLACKHAND\BLACKHAND\RELEASE\FONTS.OBJ
C:\USERS\PHOGC\DOCUMENTS\VISUAL STUDIO 2015\PROJECTS\BLACKHAND\BLACKHAND\RELEASE\ENTITYLIST.OBJ
C:\USERS\PHOGC\DOCUMENTS\VISUAL STUDIO 2015\PROJECTS\BLACKHAND\BLACKHAND\RELEASE\ENGINECLIENT.OBJ
C:\USERS\PHOGC\DOCUMENTS\VISUAL STUDIO 2015\PROJECTS\BLACKHAND\BLACKHAND\RELEASE\ENTITY.OBJ
C:\USERS\PHOGC\DOCUMENTS\VISUAL STUDIO 2015\PROJECTS\BLACKHAND\BLACKHAND\RELEASE\DLLMAIN.OBJ
C:\USERS\PHOGC\DOCUMENTS\VISUAL STUDIO 2015\PROJECTS\BLACKHAND\BLACKHAND\RELEASE\COLORS.OBJ
^C:\USERS\PHOGC\DOCUMENTS\VISUAL STUDIO 2015\PROJECTS\BLACKHAND\BLACKHAND\INTERFACES.C
C:\USERS\PHOGC\DOCUMENTS\VISUAL STUDIO 2015\PROJECTS\BLACKHAND\BLACKHAND\RELEASE\VC140.PDB
C:\USERS\PHOGC\DOCUMENTS\VISUAL STUDIO 2015\PROJECTS\BLACKHAND\BLACKHAND\RELEASE\INTERFACES.OBJ
^C:\USERS\PHOGC\DOCUMENTS\VISUAL STUDIO 2015\PROJECTS\BLACKHAND\BLACKHAND\COLORS.C|C:\USERS\PHOGC\DOCUMENTS\VISUAL STUDIO 2015\PROJECTS\BLACKHAND\BLACKHAND\DLLMAIN.C|C:\USERS\PHOGC\DOCUMENTS\VISUAL STUDIO 2015\PROJECTS\BLACKHAND\BLACKHAND\ENTITY.C|C:\USERS\PHOGC\DOCUMENTS\VISUAL STUDIO 2015\PROJECTS\BLACKHAND\BLACKHAND\FONTS.C|C:\USERS\PHOGC\DOCUMENTS\VISUAL STUDIO 2015\PROJECTS\BLACKHAND\BLACKHAND\HOOKS.C|C:\USERS\PHOGC\DOCUMENTS\VISUAL STUDIO 2015\PROJECTS\BLACKHAND\BLACKHAND\PAINTTRAVERSE.C|C:\USERS\PHOGC\DOCUMENTS\VISUAL STUDIO 2015\PROJECTS\BLACKHAND\BLACKHAND\VISUALS.C|C:\USERS\PHOGC\DOCUMENTS\VISUAL STUDIO 2015\PROJECTS\BLACKHAND\BLACKHAND\WATERMARK.C|C:\USERS\PHOGC\DOCUMENTS\VISUAL STUDIO 2015\PROJECTS\BLACKHAND\BLACKHAND\WORLDTOSCREEN.C
C:\USERS\PHOGC\DOCUMENTS\VISUAL STUDIO 2015\PROJECTS\BLACKHAND\BLACKHAND\RELEASE\VC140.PDB
C:\USERS\PHOGC\DOCUMENTS\VISUAL STUDIO 2015\PROJECTS\BLACKHAND\BLACKHAND\RELEASE\WORLDTOSCREEN.OBJ
C:\USERS\PHOGC\DOCUMENTS\VISUAL STUDIO 2015\PROJECTS\BLACKHAND\BLACKHAND\RELEASE\WATERMARK.OBJ
C:\USERS\PHOGC\DOCUMENTS\VISUAL STUDIO 2015\PROJECTS\BLACKHAND\BLACKHAND\RELEASE\VISUALS.OBJ
C:\USERS\PHOGC\DOCUMENTS\VISUAL STUDIO 2015\PROJECTS\BLACKHAND\BLACKHAND\RELEASE\PAINTTRAVERSE.OBJ
C:\USERS\PHOGC\DOCUMENTS\VISUAL STUDIO 2015\PROJECTS\BLACKHAND\BLACKHAND\RELEASE\HOOKS.OBJ
C:\USERS\PHOGC\DOCUMENTS\VISUAL STUDIO 2015\PROJECTS\BLACKHAND\BLACKHAND\RELEASE\FONTS.OBJ
C:\USERS\PHOGC\DOCUMENTS\VISUAL STUDIO 2015\PROJECTS\BLACKHAND\BLACKHAND\RELEASE\ENTITY.OBJ
C:\USERS\PHOGC\DOCUMENTS\VISUAL STUDIO 2015\PROJECTS\BLACKHAND\BLACKHAND\RELEASE\DLLMAIN.OBJ
C:\USERS\PHOGC\DOCUMENTS\VISUAL STUDIO 2015\PROJECTS\BLACKHAND\BLACKHAND\RELEASE\COLORS.OBJ
^C:\USERS\PHOGC\DOCUMENTS\VISUAL STUDIO 2015\PROJECTS\BLACKHAND\BLACKHAND\COLORS.C|C:\USERS\PHOGC\DOCUMENTS\VISUAL STUDIO 2015\PROJECTS\BLACKHAND\BLACKHAND\DLLMAIN.C|C:\USERS\PHOGC\DOCUMENTS\VISUAL STUDIO 2015\PROJECTS\BLACKHAND\BLACKHAND\ENGINECLIENT.C|C:\USERS\PHOGC\DOCUMENTS\VISUAL STUDIO 2015\PROJECTS\BLACKHAND\BLACKHAND\ENTITY.C|C:\USERS\PHOGC\DOCUMENTS\VISUAL STUDIO 2015\PROJECTS\BLACKHAND\BLACKHAND\ENTITYLIST.C|C:\USERS\PHOGC\DOCUMENTS\VISUAL STUDIO 2015\PROJECTS\BLACKHAND\BLACKHAND\ESP.C|C:\USERS\PHOGC\DOCUMENTS\VISUAL STUDIO 2015\PROJECTS\BLACKHAND\BLACKHAND\FONTS.C|C:\USERS\PHOGC\DOCUMENTS\VISUAL STUDIO 2015\PROJECTS\BLACKHAND\BLACKHAND\HOOKS.C|C:\USERS\PHOGC\DOCUMENTS\VISUAL STUDIO 2015\PROJECTS\BLACKHAND\BLACKHAND\ISURFACE.C|C:\USERS\PHOGC\DOCUMENTS\VISUAL STUDIO 2015\PROJECTS\BLACKHAND\BLACKHAND\IVPANEL.C|C:\USERS\PHOGC\DOCUMENTS\VISUAL STUDIO 2015\PROJECTS\BLACKHAND\BLACKHAND\PAINTTRAVERSE.C|C:\USERS\PHOGC\DOCUMENTS\VISUAL STUDIO 2015\PROJECTS\BLACKHAND\BLACKHAND\VISUALS.C|C:\USERS\PHOGC\DOCUMENTS\VISUAL STUDIO 2015\PROJECTS\BLACKHAND\BLACKHAND\WATERMARK.C|C:\USERS\PHOGC\DOCUMENTS\VISUAL STUDIO 2015\PROJECTS\BLACKHAND\BLACKHAND\WORLDTOSCREEN.C
C:\USERS\PHOGC\DOCUMENTS\VISUAL STUDIO 2015\PROJECTS\BLACKHAND\BLACKHAND\RELEASE\VC140.PDB
C:\USERS\PHOGC\DOCUMENTS\VISUAL STUDIO 2015\PROJECTS\BLACKHAND\BLACKHAND\RELEASE\WORLDTOSCREEN.OBJ
C:\USERS\PHOGC\DOCUMENTS\VISUAL STUDIO 2015\PROJECTS\BLACKHAND\BLACKHAND\RELEASE\WATERMARK.OBJ
C:\USERS\PHOGC\DOCUMENTS\VISUAL STUDIO 2015\PROJECTS\BLACKHAND\BLACKHAND\RELEASE\VISUALS.OBJ
C:\USERS\PHOGC\DOCUMENTS\VISUAL STUDIO 2015\PROJECTS\BLACKHAND\BLACKHAND\RELEASE\HOOKS.OBJ
C:\USERS\PHOGC\DOCUMENTS\VISUAL STUDIO 2015\PROJECTS\BLACKHAND\BLACKHAND\RELEASE\FONTS.OBJ
C:\USERS\PHOGC\DOCUMENTS\VISUAL STUDIO 2015\PROJECTS\BLACKHAND\BLACKHAND\RELEASE\ESP.OBJ
C:\USERS\PHOGC\DOCUMENTS\VISUAL STUDIO 2015\PROJECTS\BLACKHAND\BLACKHAND\RELEASE\DLLMAIN.OBJ
C:\USERS\PHOGC\DOCUMENTS\VISUAL STUDIO 2015\PROJECTS\BLACKHAND\BLACKHAND\RELEASE\COLORS.OBJ
^C:\USERS\PHOGC\DOCUMENTS\VISUAL STUDIO 2015\PROJECTS\BLACKHAND\BLACKHAND\COLORS.C|C:\USERS\PHOGC\DOCUMENTS\VISUAL STUDIO 2015\PROJECTS\BLACKHAND\BLACKHAND\DLLMAIN.C|C:\USERS\PHOGC\DOCUMENTS\VISUAL STUDIO 2015\PROJECTS\BLACKHAND\BLACKHAND\ENGINECLIENT.C|C:\USERS\PHOGC\DOCUMENTS\VISUAL STUDIO 2015\PROJECTS\BLACKHAND\BLACKHAND\ENTITY.C|C:\USERS\PHOGC\DOCUMENTS\VISUAL STUDIO 2015\PROJECTS\BLACKHAND\BLACKHAND\ENTITYLIST.C|C:\USERS\PHOGC\DOCUMENTS\VISUAL STUDIO 2015\PROJECTS\BLACKHAND\BLACKHAND\FONTS.C|C:\USERS\PHOGC\DOCUMENTS\VISUAL STUDIO 2015\PROJECTS\BLACKHAND\BLACKHAND\HOOKS.C|C:\USERS\PHOGC\DOCUMENTS\VISUAL STUDIO 2015\PROJECTS\BLACKHAND\BLACKHAND\ISURFACE.C|C:\USERS\PHOGC\DOCUMENTS\VISUAL STUDIO 2015\PROJECTS\BLACKHAND\BLACKHAND\IVPANEL.C|C:\USERS\PHOGC\DOCUMENTS\VISUAL STUDIO 2015\PROJECTS\BLACKHAND\BLACKHAND\PAINTTRAVERSE.C|C:\USERS\PHOGC\DOCUMENTS\VISUAL STUDIO 2015\PROJECTS\BLACKHAND\BLACKHAND\VISUALS.C|C:\USERS\PHOGC\DOCUMENTS\VISUAL STUDIO 2015\PROJECTS\BLACKHAND\BLACKHAND\WATERMARK.C|C:\USERS\PHOGC\DOCUMENTS\VISUAL STUDIO 2015\PROJECTS\BLACKHAND\BLACKHAND\WORLDTOSCREEN.C
C:\USERS\PHOGC\DOCUMENTS\VISUAL STUDIO 2015\PROJECTS\BLACKHAND\BLACKHAND\RELEASE\VC140.PDB
C:\USERS\PHOGC\DOCUMENTS\VISUAL STUDIO 2015\PROJECTS\BLACKHAND\BLACKHAND\RELEASE\WORLDTOSCREEN.OBJ
C:\USERS\PHOGC\DOCUMENTS\VISUAL STUDIO 2015\PROJECTS\BLACKHAND\BLACKHAND\RELEASE\WATERMARK.OBJ
C:\USERS\PHOGC\DOCUMENTS\VISUAL STUDIO 2015\PROJECTS\BLACKHAND\BLACKHAND\RELEASE\VISUALS.OBJ
C:\USERS\PHOGC\DOCUMENTS\VISUAL STUDIO 2015\PROJECTS\BLACKHAND\BLACKHAND\RELEASE\IVPANEL.OBJ
C:\USERS\PHOGC\DOCUMENTS\VISUAL STUDIO 2015\PROJECTS\BLACKHAND\BLACKHAND\RELEASE\ISURFACE.OBJ
C:\USERS\PHOGC\DOCUMENTS\VISUAL STUDIO 2015\PROJECTS\BLACKHAND\BLACKHAND\RELEASE\HOOKS.OBJ
C:\USERS\PHOGC\DOCUMENTS\VISUAL STUDIO 2015\PROJECTS\BLACKHAND\BLACKHAND\RELEASE\FONTS.OBJ
C:\USERS\PHOGC\DOCUMENTS\VISUAL STUDIO 2015\PROJECTS\BLACKHAND\BLACKHAND\RELEASE\ENTITYLIST.OBJ
C:\USERS\PHOGC\DOCUMENTS\VISUAL STUDIO 2015\PROJECTS\BLACKHAND\BLACKHAND\RELEASE\ENGINECLIENT.OBJ
C:\USERS\PHOGC\DOCUMENTS\VISUAL STUDIO 2015\PROJECTS\BLACKHAND\BLACKHAND\RELEASE\ENTITY.OBJ
C:\USERS\PHOGC\DOCUMENTS\VISUAL STUDIO 2015\PROJECTS\BLACKHAND\BLACKHAND\RELEASE\DLLMAIN.OBJ
C:\USERS\PHOGC\DOCUMENTS\VISUAL STUDIO 2015\PROJECTS\BLACKHAND\BLACKHAND\RELEASE\COLORS.OBJ
^C:\USERS\PHOGC\DOCUMENTS\VISUAL STUDIO 2015\PROJECTS\BLACKHAND\BLACKHAND\COLORS.C|C:\USERS\PHOGC\DOCUMENTS\VISUAL STUDIO 2015\PROJECTS\BLACKHAND\BLACKHAND\DLLMAIN.C|C:\USERS\PHOGC\DOCUMENTS\VISUAL STUDIO 2015\PROJECTS\BLACKHAND\BLACKHAND\ENGINECLIENT.C|C:\USERS\PHOGC\DOCUMENTS\VISUAL STUDIO 2015\PROJECTS\BLACKHAND\BLACKHAND\ENTITY.C|C:\USERS\PHOGC\DOCUMENTS\VISUAL STUDIO 2015\PROJECTS\BLACKHAND\BLACKHAND\ENTITYLIST.C|C:\USERS\PHOGC\DOCUMENTS\VISUAL STUDIO 2015\PROJECTS\BLACKHAND\BLACKHAND\ESP.C|C:\USERS\PHOGC\DOCUMENTS\VISUAL STUDIO 2015\PROJECTS\BLACKHAND\BLACKHAND\FONTS.C|C:\USERS\PHOGC\DOCUMENTS\VISUAL STUDIO 2015\PROJECTS\BLACKHAND\BLACKHAND\HOOKS.C|C:\USERS\PHOGC\DOCUMENTS\VISUAL STUDIO 2015\PROJECTS\BLACKHAND\BLACKHAND\ISURFACE.C|C:\USERS\PHOGC\DOCUMENTS\VISUAL STUDIO 2015\PROJECTS\BLACKHAND\BLACKHAND\IVPANEL.C|C:\USERS\PHOGC\DOCUMENTS\VISUAL STUDIO 2015\PROJECTS\BLACKHAND\BLACKHAND\PAINTTRAVERSE.C|C:\USERS\PHOGC\DOCUMENTS\VISUAL STUDIO 2015\PROJECTS\BLACKHAND\BLACKHAND\VECTOR.C|C:\USERS\PHOGC\DOCUMENTS\VISUAL STUDIO 2015\PROJECTS\BLACKHAND\BLACKHAND\VISUALS.C|C:\USERS\PHOGC\DOCUMENTS\VISUAL STUDIO 2015\PROJECTS\BLACKHAND\BLACKHAND\WATERMARK.C|C:\USERS\PHOGC\DOCUMENTS\VISUAL STUDIO 2015\PROJECTS\BLACKHAND\BLACKHAND\WORLDTOSCREEN.C
C:\USERS\PHOGC\DOCUMENTS\VISUAL STUDIO 2015\PROJECTS\BLACKHAND\BLACKHAND\RELEASE\VC140.PDB
C:\USERS\PHOGC\DOCUMENTS\VISUAL STUDIO 2015\PROJECTS\BLACKHAND\BLACKHAND\RELEASE\WORLDTOSCREEN.OBJ
C:\USERS\PHOGC\DOCUMENTS\VISUAL STUDIO 2015\PROJECTS\BLACKHAND\BLACKHAND\RELEASE\WATERMARK.OBJ
C:\USERS\PHOGC\DOCUMENTS\VISUAL STUDIO 2015\PROJECTS\BLACKHAND\BLACKHAND\RELEASE\VISUALS.OBJ
C:\USERS\PHOGC\DOCUMENTS\VISUAL STUDIO 2015\PROJECTS\BLACKHAND\BLACKHAND\RELEASE\VECTOR.OBJ
C:\USERS\PHOGC\DOCUMENTS\VISUAL STUDIO 2015\PROJECTS\BLACKHAND\BLACKHAND\RELEASE\PAINTTRAVERSE.OBJ
C:\USERS\PHOGC\DOCUMENTS\VISUAL STUDIO 2015\PROJECTS\BLACKHAND\BLACKHAND\RELEASE\IVPANEL.OBJ
C:\USERS\PHOGC\DOCUMENTS\VISUAL STUDIO 2015\PROJECTS\BLACKHAND\BLACKHAND\RELEASE\ISURFACE.OBJ
C:\USERS\PHOGC\DOCUMENTS\VISUAL STUDIO 2015\PROJECTS\BLACKHAND\BLACKHAND\RELEASE\HOOKS.OBJ
C:\USERS\PHOGC\DOCUMENTS\VISUAL STUDIO 2015\PROJECTS\BLACKHAND\BLACKHAND\RELEASE\FONTS.OBJ
C:\USERS\PHOGC\DOCUMENTS\VISUAL STUDIO 2015\PROJECTS\BLACKHAND\BLACKHAND\RELEASE\ESP.OBJ
C:\USERS\PHOGC\DOCUMENTS\VISUAL STUDIO 2015\PROJECTS\BLACKHAND\BLACKHAND\RELEASE\ENTITYLIST.OBJ
C:\USERS\PHOGC\DOCUMENTS\VISUAL STUDIO 2015\PROJECTS\BLACKHAND\BLACKHAND\RELEASE\ENTITY.OBJ
C:\USERS\PHOGC\DOCUMENTS\VISUAL STUDIO 2015\PROJECTS\BLACKHAND\BLACKHAND\RELEASE\ENGINECLIENT.OBJ
C:\USERS\PHOGC\DOCUMENTS\VISUAL STUDIO 2015\PROJECTS\BLACKHAND\BLACKHAND\RELEASE\DLLMAIN.OBJ
C:\USERS\PHOGC\DOCUMENTS\VISUAL STUDIO 2015\PROJECTS\BLACKHAND\BLACKHAND\RELEASE\COLORS.OBJ
^C:\USERS\PHOGC\DOCUMENTS\VISUAL STUDIO 2015\PROJECTS\BLACKHAND\BLACKHAND\COLORS.C
C:\USERS\PHOGC\DOCUMENTS\VISUAL STUDIO 2015\PROJECTS\BLACKHAND\BLACKHAND\RELEASE\VC140.PDB
^C:\USERS\PHOGC\DOCUMENTS\VISUAL STUDIO 2015\PROJECTS\BLACKHAND\BLACKHAND\DLLMAIN.C
C:\USERS\PHOGC\DOCUMENTS\VISUAL STUDIO 2015\PROJECTS\BLACKHAND\BLACKHAND\RELEASE\VC140.PDB
^C:\USERS\PHOGC\DOCUMENTS\VISUAL STUDIO 2015\PROJECTS\BLACKHAND\BLACKHAND\ENGINECLIENT.C
C:\USERS\PHOGC\DOCUMENTS\VISUAL STUDIO 2015\PROJECTS\BLACKHAND\BLACKHAND\RELEASE\VC140.PDB
^C:\USERS\PHOGC\DOCUMENTS\VISUAL STUDIO 2015\PROJECTS\BLACKHAND\BLACKHAND\ENTITY.C
C:\USERS\PHOGC\DOCUMENTS\VISUAL STUDIO 2015\PROJECTS\BLACKHAND\BLACKHAND\RELEASE\VC140.PDB
^C:\USERS\PHOGC\DOCUMENTS\VISUAL STUDIO 2015\PROJECTS\BLACKHAND\BLACKHAND\ENTITYLIST.C
C:\USERS\PHOGC\DOCUMENTS\VISUAL STUDIO 2015\PROJECTS\BLACKHAND\BLACKHAND\RELEASE\VC140.PDB
^C:\USERS\PHOGC\DOCUMENTS\VISUAL STUDIO 2015\PROJECTS\BLACKHAND\BLACKHAND\FONTS.C
C:\USERS\PHOGC\DOCUMENTS\VISUAL STUDIO 2015\PROJECTS\BLACKHAND\BLACKHAND\RELEASE\VC140.PDB
^C:\USERS\PHOGC\DOCUMENTS\VISUAL STUDIO 2015\PROJECTS\BLACKHAND\BLACKHAND\HOOKS.C
C:\USERS\PHOGC\DOCUMENTS\VISUAL STUDIO 2015\PROJECTS\BLACKHAND\BLACKHAND\RELEASE\VC140.PDB
^C:\USERS\PHOGC\DOCUMENTS\VISUAL STUDIO 2015\PROJECTS\BLACKHAND\BLACKHAND\ISURFACE.C
C:\USERS\PHOGC\DOCUMENTS\VISUAL STUDIO 2015\PROJECTS\BLACKHAND\BLACKHAND\RELEASE\VC140.PDB
^C:\USERS\PHOGC\DOCUMENTS\VISUAL STUDIO 2015\PROJECTS\BLACKHAND\BLACKHAND\IVPANEL.C
C:\USERS\PHOGC\DOCUMENTS\VISUAL STUDIO 2015\PROJECTS\BLACKHAND\BLACKHAND\RELEASE\VC140.PDB
^C:\USERS\PHOGC\DOCUMENTS\VISUAL STUDIO 2015\PROJECTS\BLACKHAND\BLACKHAND\VECTOR.C
C:\USERS\PHOGC\DOCUMENTS\VISUAL STUDIO 2015\PROJECTS\BLACKHAND\BLACKHAND\RELEASE\VC140.PDB
^C:\USERS\PHOGC\DOCUMENTS\VISUAL STUDIO 2015\PROJECTS\BLACKHAND\BLACKHAND\VISUALS.C
C:\USERS\PHOGC\DOCUMENTS\VISUAL STUDIO 2015\PROJECTS\BLACKHAND\BLACKHAND\RELEASE\VC140.PDB
^C:\USERS\PHOGC\DOCUMENTS\VISUAL STUDIO 2015\PROJECTS\BLACKHAND\BLACKHAND\WATERMARK.C
C:\USERS\PHOGC\DOCUMENTS\VISUAL STUDIO 2015\PROJECTS\BLACKHAND\BLACKHAND\RELEASE\VC140.PDB
^C:\USERS\PHOGC\DOCUMENTS\VISUAL STUDIO 2015\PROJECTS\BLACKHAND\BLACKHAND\PAINTTRAVERSE.C
C:\USERS\PHOGC\DOCUMENTS\VISUAL STUDIO 2015\PROJECTS\BLACKHAND\BLACKHAND\RELEASE\VC140.PDB
C:\USERS\PHOGC\DOCUMENTS\VISUAL STUDIO 2015\PROJECTS\BLACKHAND\BLACKHAND\RELEASE\PAINTTRAVERSE.OBJ
^C:\USERS\PHOGC\DOCUMENTS\VISUAL STUDIO 2015\PROJECTS\BLACKHAND\BLACKHAND\ESP.C|C:\USERS\PHOGC\DOCUMENTS\VISUAL STUDIO 2015\PROJECTS\BLACKHAND\BLACKHAND\WORLDTOSCREEN.C
C:\USERS\PHOGC\DOCUMENTS\VISUAL STUDIO 2015\PROJECTS\BLACKHAND\BLACKHAND\RELEASE\VC140.PDB
C:\USERS\PHOGC\DOCUMENTS\VISUAL STUDIO 2015\PROJECTS\BLACKHAND\BLACKHAND\RELEASE\WORLDTOSCREEN.OBJ
C:\USERS\PHOGC\DOCUMENTS\VISUAL STUDIO 2015\PROJECTS\BLACKHAND\BLACKHAND\RELEASE\ESP.OBJ
^C:\USERS\PHOGC\DOCUMENTS\VISUAL STUDIO 2015\PROJECTS\BLACKHAND\BLACKHAND\WORLDTOSCREEN.C
C:\USERS\PHOGC\DOCUMENTS\VISUAL STUDIO 2015\PROJECTS\BLACKHAND\BLACKHAND\RELEASE\VC140.PDB
^C:\USERS\PHOGC\DOCUMENTS\VISUAL STUDIO 2015\PROJECTS\BLACKHAND\BLACKHAND\ESP.C
C:\USERS\PHOGC\DOCUMENTS\VISUAL STUDIO 2015\PROJECTS\BLACKHAND\BLACKHAND\RELEASE\VC140.PDB
C:\USERS\PHOGC\DOCUMENTS\VISUAL STUDIO 2015\PROJECTS\BLACKHAND\BLACKHAND\RELEASE\ESP.OBJ
